{
  "name": "zigzag",
  "points": [
    {
      "position": {
        "x": 75,
        "y": 850
      },
      "newtrial": true
    },
    {
      "time": 0.1,
      "position": {
        "x": 425,
        "y": 850
      },
      "type": "linear",
      "sound": true
    },
    {
      "time": 0.15,
      "position": {
        "x": 75,
        "y": 620
      },
      "newtrial": true,
      "type": "linear",
      "sound": true
    },
    {
      "time": 0.2,
      "position": {
        "x": 425,
        "y": 620
      },
      "type": "linear",
      "sound": true
    },
    {
      "time": 0.25,
      "position": {
        "x": 75,
        "y": 385
      },
      "newtrial": true,
      "type": "linear",
      "sound": true
    },
    {
      "time": 0.3,
      "position": {
        "x": 425,
        "y": 385
      },
      "type": "linear",
      "sound": true
    },
    {
      "time": 0.35,
      "position": {
        "x": 75,
        "y": 150
      },
      "newtrial": true,
      "type": "linear",
      "sound": true
    },
    {
      "time": 0.40,
      "position": {
        "x": 425,
        "y": 385
      },
      "type": "linear",
      "sound": true
    },
    {
      "time": 0.45,
      "position": {
        "x": 75,
        "y": 385
      },
      "newtrial": true,
      "type": "linear",
      "sound": true
    },
    {
      "time": 0.50,
      "position": {
        "x": 425,
        "y": 620
      },
      "type": "linear",
      "sound": true
    },
    {
      "time": 0.55,
      "position": {
        "x": 75,
        "y": 620
      },
      "newtrial": true,
      "type": "linear",
      "sound": true
    },
    {
      "time": 0.6,
      "position": {
        "x": 425,
        "y": 850
      },
      "type": "linear",
      "sound": true
    },
    {
      "time": 0.65,
      "position": {
        "x": 75,
        "y": 850
      },
      "newtrial": true,
      "sound": true
    },
    {
      "time": 0.7,
      "position": {
        "x": 425,
        "y": 850
      },
      "type": "linear",
      "sound": true
    },
    {
      "time": 0.75,
      "position": {
        "x": 75,
        "y": 620
      },
      "newtrial": true,
      "type": "linear",
      "sound": true
    },
    {
      "time": 0.8,
      "position": {
        "x": 425,
        "y": 620
      },
      "type": "linear",
      "sound": true
    },
    {
      "time": 0.85,
      "position": {
        "x": 75,
        "y": 385
      },
      "newtrial": true,
      "type": "linear",
      "sound": true
    },
    {
      "time": 0.9,
      "position": {
        "x": 425,
        "y": 385
      },
      "type": "linear",
      "sound": true
    },
    {
      "time": 0.95,
      "position": {
        "x": 75,
        "y": 150
      },
      "newtrial": true,
      "type": "linear",
      "sound": true
    },
    {
      "time": 1,
      "position": {
        "x": 425,
        "y": 385
      },
      "type": "linear",
      "sound": true
    }
  ]
}
