
{
  "tasks": [
    "Smooth_Juicy2",
    "Pause",
    "Smooth_Juicy4",
    "Pause",
    "Smooth_Juicy1",
    "Pause",
    "Smooth_Juicy3",
    "Pause",
    "Saccade_Juicy2",
    "Pause",
    "Saccade_Juicy4",
    "Pause",
    "Saccade_Juicy1",
    "Pause",
    "Saccade_Juicy3",
    "Pause"
  ]
}
