{
  "type": "Saccade",
  "condition": "Plain",
  "instruction": "In this task, a target will appear and disappear at random locations on the screen. \\n\\ You need to follow the target around. Try your best to sit still and tap the button below when you are ready to begin.",
  "sound_moving": "none",
  "sound_point": "TickSound",
  "paths": [
    "saccade1",
    "saccade2"  ]
}
