{
  "type": "Smooth",
  "condition": "Dog",
  "instruction": "In this task, a target will appear on the screen and move around. \\n\\ You need to follow the target movements. Try your best to sit still and tap the button below when you are ready to begin.",
  "sound_moving": "none",
  "sound_point": "WoofSound",
  "paths": [
    "smooth1",
    "smooth2",
    "smooth3",
    "smooth4"
  ],
  "speeds": [
    1
  ]
}
