{   "name": "snake",
    "points":[
        {
            "position":{"x":-3500,"y":150},
            "newtrial": true
        },
        {
            "time":0,
            "position":{"x":250,"y":150},
            "type":"spline"
        },
        {
            "time":1,
            "position":{"x":250,"y":850},
            "type":"spline"
        },
        {
            "time":1,
            "position":{"x":3500,"y":850}
        }
    ]
}

